<?xml version="1.0" encoding="UTF-8" standalone="no"?>
<!-- Created with Inkscape (http://www.inkscape.org/) -->

<svg
   xmlns:dc="http://purl.org/dc/elements/1.1/"
   xmlns:cc="http://creativecommons.org/ns#"
   xmlns:rdf="http://www.w3.org/1999/02/22-rdf-syntax-ns#"
   xmlns:svg="http://www.w3.org/2000/svg"
   xmlns="http://www.w3.org/2000/svg"
   xmlns:xlink="http://www.w3.org/1999/xlink"
   xmlns:sodipodi="http://sodipodi.sourceforge.net/DTD/sodipodi-0.dtd"
   xmlns:inkscape="http://www.inkscape.org/namespaces/inkscape"
   width="180.44841mm"
   height="80.61869mm"
   viewBox="0 0 180.44841 80.61869"
   version="1.1"
   id="svg8"
   inkscape:version="0.92.1 r"
   sodipodi:docname="signing-model.svg">
  <defs
     id="defs2">
    <marker
       inkscape:stockid="Arrow2Lend"
       orient="auto"
       refY="0"
       refX="0"
       id="marker5406"
       style="overflow:visible"
       inkscape:isstock="true">
      <path
         id="path5404"
         style="fill:#000000;fill-opacity:1;fill-rule:evenodd;stroke:#000000;stroke-width:0.625;stroke-linejoin:round;stroke-opacity:1"
         d="M 8.7185878,4.0337352 -2.2072895,0.01601326 8.7185884,-4.0017078 c -1.7454984,2.3720609 -1.7354408,5.6174519 -6e-7,8.035443 z"
         transform="matrix(-1.1,0,0,-1.1,-1.1,0)"
         inkscape:connector-curvature="0" />
    </marker>
    <marker
       inkscape:isstock="true"
       style="overflow:visible"
       id="marker5150"
       refX="0"
       refY="0"
       orient="auto"
       inkscape:stockid="Arrow2Lend"
       inkscape:collect="always">
      <path
         transform="matrix(-1.1,0,0,-1.1,-1.1,0)"
         d="M 8.7185878,4.0337352 -2.2072895,0.01601326 8.7185884,-4.0017078 c -1.7454984,2.3720609 -1.7354408,5.6174519 -6e-7,8.035443 z"
         style="fill:#000000;fill-opacity:1;fill-rule:evenodd;stroke:#000000;stroke-width:0.625;stroke-linejoin:round;stroke-opacity:1"
         id="path5148"
         inkscape:connector-curvature="0" />
    </marker>
    <marker
       inkscape:stockid="Arrow2Lend"
       orient="auto"
       refY="0"
       refX="0"
       id="Arrow2Lend"
       style="overflow:visible"
       inkscape:isstock="true"
       inkscape:collect="always">
      <path
         id="path4873"
         style="fill:#000000;fill-opacity:1;fill-rule:evenodd;stroke:#000000;stroke-width:0.625;stroke-linejoin:round;stroke-opacity:1"
         d="M 8.7185878,4.0337352 -2.2072895,0.01601326 8.7185884,-4.0017078 c -1.7454984,2.3720609 -1.7354408,5.6174519 -6e-7,8.035443 z"
         transform="matrix(-1.1,0,0,-1.1,-1.1,0)"
         inkscape:connector-curvature="0" />
    </marker>
    <linearGradient
       id="linearGradient4562">
      <stop
         offset="0"
         stop-color="#fff"
         id="stop4564" />
      <stop
         offset="1"
         stop-color="#d6d6d2"
         id="stop4566" />
    </linearGradient>
    <linearGradient
       id="linearGradient4356">
      <stop
         offset="0"
         id="stop4358" />
      <stop
         offset="1"
         stop-opacity="0"
         id="stop4360" />
    </linearGradient>
    <radialGradient
       r="8.6620998"
       cx="31.113001"
       cy="19.009001"
       gradientUnits="userSpaceOnUse"
       id="radialGradient3822">
      <stop
         offset="0"
         id="stop3818" />
      <stop
         offset="1"
         stop-opacity="0"
         id="stop3820" />
    </radialGradient>
    <linearGradient
       x1="20.662001"
       y1="35.818001"
       gradientTransform="matrix(1.3161,0.24303,-0.24303,1.3161,-9.2621,-16.074)"
       x2="22.627001"
       gradientUnits="userSpaceOnUse"
       xlink:href="#linearGradient4356"
       y2="36.217999"
       id="linearGradient4362" />
    <linearGradient
       x1="22.687"
       y1="36.389999"
       gradientTransform="matrix(-1.3085,0.28115,0.28115,1.3085,57.412,-17.238)"
       x2="21.408001"
       gradientUnits="userSpaceOnUse"
       xlink:href="#linearGradient4356"
       y2="35.740002"
       id="linearGradient4366" />
    <linearGradient
       x1="22.687"
       y1="36.389999"
       gradientTransform="matrix(-1.3085,0.28115,0.28115,1.3085,39.091,-26.212)"
       x2="21.408001"
       gradientUnits="userSpaceOnUse"
       xlink:href="#linearGradient4356"
       y2="35.740002"
       id="linearGradient1366" />
    <linearGradient
       x1="30.936001"
       y1="29.552999"
       gradientTransform="matrix(1.3384,0,0,1.3384,-33.479,-20.7)"
       x2="30.936001"
       gradientUnits="userSpaceOnUse"
       y2="35.803001"
       id="linearGradient1372">
      <stop
         offset="0"
         stop-color="#fff"
         id="stop3826" />
      <stop
         offset="1"
         stop-color="#c9c9c9"
         id="stop3828" />
    </linearGradient>
    <radialGradient
       r="17.986"
       gradientTransform="matrix(1.3545,0,-3.3405e-8,1.3664,-8.9475,-9.8714)"
       cx="24.754"
       cy="26.813999"
       gradientUnits="userSpaceOnUse"
       xlink:href="#linearGradient4562"
       id="radialGradient4568" />
    <radialGradient
       r="17.986"
       gradientTransform="matrix(0.55849,0,-1.3773e-8,0.56339,14.871,4.3641)"
       cx="29.922001"
       cy="17.728001"
       gradientUnits="userSpaceOnUse"
       xlink:href="#linearGradient4562"
       id="radialGradient3816" />
    <filter
       x="-0.076110996"
       y="-0.28345001"
       width="1.1522"
       height="1.5669"
       id="filter5655">
      <feGaussianBlur
         stdDeviation="1.4531044"
         id="feGaussianBlur5657" />
    </filter>
    <linearGradient
       inkscape:collect="always"
       x1="67.509003"
       y1="228.53999"
       gradientTransform="translate(122.74,-1.7173e-5)"
       x2="150.36"
       gradientUnits="userSpaceOnUse"
       y2="228.53999"
       id="linearGradient3308">
      <stop
         offset="0"
         style="stop-color:#ffffff;stop-opacity:0"
         id="stop3304" />
      <stop
         offset="0.2"
         style="stop-color:#ffffff;stop-opacity:.29412"
         id="stop3310" />
      <stop
         offset="1"
         style="stop-color:#ffffff;stop-opacity:0"
         id="stop3306" />
    </linearGradient>
    <radialGradient
       inkscape:collect="always"
       r="7.6715002"
       gradientTransform="matrix(0.6462,0,0,0.37308,192.71,318.21)"
       cx="544.67999"
       cy="507.57999"
       gradientUnits="userSpaceOnUse"
       xlink:href="#linearGradient3235"
       id="radialGradient3241" />
    <linearGradient
       id="linearGradient3235">
      <stop
         offset="0"
         style="stop-color:#ffffff"
         id="stop3237" />
      <stop
         offset=".26786"
         style="stop-color:#43ff38"
         id="stop3247" />
      <stop
         offset="1"
         style="stop-color:#ffffff;stop-opacity:0"
         id="stop3239" />
    </linearGradient>
    <linearGradient
       inkscape:collect="always"
       x1="313.92001"
       y1="160.72"
       gradientTransform="translate(114.94,4.5045)"
       x2="172.45"
       gradientUnits="userSpaceOnUse"
       xlink:href="#linearGradient3282"
       y2="160.72"
       id="linearGradient3288" />
    <linearGradient
       id="linearGradient3282">
      <stop
         offset="0"
         style="stop-color:#ffffff;stop-opacity:.29412"
         id="stop3284" />
      <stop
         offset="1"
         style="stop-color:#ffffff;stop-opacity:0"
         id="stop3286" />
    </linearGradient>
    <linearGradient
       inkscape:collect="always"
       x1="276.17001"
       y1="113.39"
       gradientTransform="translate(46.029,-79.724)"
       x2="188.48"
       gradientUnits="userSpaceOnUse"
       xlink:href="#linearGradient3282"
       y2="201.08"
       id="linearGradient3315" />
    <radialGradient
       inkscape:collect="always"
       xlink:href="#linearGradient3235"
       id="radialGradient4757"
       gradientUnits="userSpaceOnUse"
       gradientTransform="matrix(0.6462,0,0,0.37308,192.71,318.21)"
       cx="544.67999"
       cy="507.57999"
       r="7.6715002" />
    <linearGradient
       inkscape:collect="always"
       xlink:href="#linearGradient3308"
       id="linearGradient4789"
       gradientUnits="userSpaceOnUse"
       gradientTransform="translate(122.74,-1.7173e-5)"
       x1="67.509003"
       y1="228.53999"
       x2="150.36"
       y2="228.53999" />
    <radialGradient
       inkscape:collect="always"
       xlink:href="#linearGradient3235"
       id="radialGradient4791"
       gradientUnits="userSpaceOnUse"
       gradientTransform="matrix(0.6462,0,0,0.37308,192.71,318.21)"
       cx="544.67999"
       cy="507.57999"
       r="7.6715002" />
    <radialGradient
       inkscape:collect="always"
       xlink:href="#linearGradient3235"
       id="radialGradient4793"
       gradientUnits="userSpaceOnUse"
       gradientTransform="matrix(0.6462,0,0,0.37308,192.71,318.21)"
       cx="544.67999"
       cy="507.57999"
       r="7.6715002" />
    <linearGradient
       inkscape:collect="always"
       xlink:href="#linearGradient3282"
       id="linearGradient4795"
       gradientUnits="userSpaceOnUse"
       gradientTransform="translate(114.94,4.5045)"
       x1="313.92001"
       y1="160.72"
       x2="172.45"
       y2="160.72" />
    <linearGradient
       inkscape:collect="always"
       xlink:href="#linearGradient3282"
       id="linearGradient4797"
       gradientUnits="userSpaceOnUse"
       gradientTransform="translate(46.029,-79.724)"
       x1="276.17001"
       y1="113.39"
       x2="188.48"
       y2="201.08" />
    <linearGradient
       inkscape:collect="always"
       xlink:href="#linearGradient3308"
       id="linearGradient5737"
       gradientUnits="userSpaceOnUse"
       gradientTransform="translate(122.74,-1.7173e-5)"
       x1="67.509003"
       y1="228.53999"
       x2="150.36"
       y2="228.53999" />
  </defs>
  <sodipodi:namedview
     id="base"
     pagecolor="#ffffff"
     bordercolor="#666666"
     borderopacity="1.0"
     inkscape:pageopacity="0.0"
     inkscape:pageshadow="2"
     inkscape:zoom="0.7"
     inkscape:cx="199.14245"
     inkscape:cy="157.32845"
     inkscape:document-units="mm"
     inkscape:current-layer="layer1"
     showgrid="false"
     inkscape:window-width="1362"
     inkscape:window-height="729"
     inkscape:window-x="0"
     inkscape:window-y="18"
     inkscape:window-maximized="0"
     fit-margin-top="0"
     fit-margin-left="0"
     fit-margin-right="0"
     fit-margin-bottom="0" />
  <metadata
     id="metadata5">
    <rdf:RDF>
      <cc:Work
         rdf:about="">
        <dc:format>image/svg+xml</dc:format>
        <dc:type
           rdf:resource="http://purl.org/dc/dcmitype/StillImage" />
        <dc:title></dc:title>
      </cc:Work>
    </rdf:RDF>
  </metadata>
  <g
     inkscape:label="Layer 1"
     inkscape:groupmode="layer"
     id="layer1"
     transform="translate(-20.722962,-89.670359)">
    <path
       style="opacity:0.97419996;fill:#ffffff;fill-opacity:1;fill-rule:nonzero;stroke:#000000;stroke-width:0.31344324;stroke-linecap:round;stroke-linejoin:round;stroke-miterlimit:4;stroke-dasharray:none;stroke-opacity:1"
       d="m 117.35659,96.697229 a 27.762116,24.851572 0 0 0 -10.37792,1.815767 21.361179,17.540992 0 0 0 -6.76964,-0.920129 21.361179,17.540992 0 0 0 -21.361278,17.540573 21.361179,17.540992 0 0 0 0.95931,5.14059 17.520152,18.815341 0 0 0 -14.392679,18.5054 17.520152,18.815341 0 0 0 14.402474,18.49866 17.687154,11.866066 0 0 0 -0.07346,0.98808 17.687154,11.866066 0 0 0 17.686891,11.86616 17.687154,11.866066 0 0 0 17.161622,-9.05436 22.164917,18.582706 0 0 0 5.22691,0.5467 22.164917,18.582706 0 0 0 22.16511,-18.58254 22.164917,18.582706 0 0 0 -1.82496,-7.33163 27.762116,24.851572 0 0 0 4.95938,-14.16188 27.762116,24.851572 0 0 0 -27.76176,-24.851391 z"
       id="path4830"
       inkscape:connector-curvature="0" />
    <g
       id="g4637"
       transform="matrix(0.51094824,0,0,0.51094824,18.769646,115.17362)">
      <g
         id="layer1-3"
         style="fill-rule:evenodd">
        <path
           d="m 13.365,24.85 h 5.679 l -3.313,-3.075 -0.709,0.946 -0.71,-0.71 z"
           style="color:#000000;fill:url(#linearGradient1372)"
           id="path4173"
           inkscape:connector-curvature="0" />
        <path
           d="m 19.883,32.491 c 1.648,-0.778 2.415,-2.68 2.415,-2.68 -1.284,-5.411 -5.322,-9.158 -5.322,-9.158 0,0 3.299,8.488 2.907,11.838 z"
           style="color:#000000;opacity:0.22784998;fill:url(#linearGradient1366)"
           id="path4370"
           inkscape:connector-curvature="0" />
      </g>
      <g
         id="layer2">
        <rect
           x="5.3032999"
           y="35.449001"
           display="block"
           width="38.183998"
           height="10.253"
           ry="5.1265001"
           rx="5.1265001"
           transform="matrix(0.93519,0,0,0.93519,1.5812,2.2763)"
           style="color:#000000;display:block;opacity:0.34856998;filter:url(#filter5655)"
           id="rect4608" />
        <path
           d="m 17.919,43.517 h 14.195 c 4.022,0 8.004,-1.475 9.464,-5.678 1.386,-3.992 0.236,-11.593 -8.754,-17.744 H 16.026 c -8.9902,5.678 -10.114,13.443 -8.0438,17.98 2.1088,4.623 5.6778,5.442 9.9368,5.442 z"
           style="color:#000000;fill:url(#radialGradient4568);fill-rule:evenodd;stroke:#888a85;stroke-width:1px;stroke-linecap:round;stroke-linejoin:round"
           id="path4308"
           inkscape:connector-curvature="0" />
        <path
           d="m 38.204,41.464 c 1.648,-0.777 2.415,-2.68 2.415,-2.68 -1.284,-5.41 -5.322,-9.158 -5.322,-9.158 0,0 3.299,8.489 2.907,11.838 z"
           style="color:#000000;opacity:0.29121004;fill:url(#linearGradient4366);fill-rule:evenodd"
           id="path4364"
           inkscape:connector-curvature="0" />
        <path
           d="M 11.643,42.046 C 9.9733,41.317 9.2259,39.559 9.2259,39.559 c 1.1261,-5.446 4.9791,-9.43 4.9791,-9.43 0,0 -3.051,8.581 -2.562,11.917 z"
           style="color:#000000;opacity:0.54944997;fill:url(#linearGradient4362);fill-rule:evenodd"
           id="path4354"
           inkscape:connector-curvature="0" />
        <path
           d="m 17.593,42.483 14.528,-0.031 c 3.654,0 7.273,-1.34 8.599,-5.159 1.259,-3.627 -0.131,-10.534 -8.3,-16.123 L 16.464,20.833 c -8.1688,5.16 -9.75,12.215 -7.8386,16.675 1.9116,4.459 4.7006,4.944 8.9676,4.975 z"
           style="color:#000000;opacity:0.64286002;fill:none;stroke:#ffffff;stroke-width:1px;stroke-linecap:round;stroke-linejoin:round"
           id="path4314"
           inkscape:connector-curvature="0" />
        <path
           transform="matrix(1.3384,0,0,1.3384,-17.027,-7.5224)"
           d="m 39.775,19.009 a 8.6621,8.6621 0 1 1 -17.324,0 8.6621,8.6621 0 1 1 17.324,0 z"
           style="color:#000000;fill:url(#radialGradient3822);fill-rule:evenodd"
           id="path4318"
           inkscape:connector-curvature="0" />
        <path
           d="m 39.775,19.009 a 8.6621,8.6621 0 1 1 -17.324,0 8.6621,8.6621 0 1 1 17.324,0 z"
           transform="matrix(1.3384,0,0,1.3384,-16.86,-12.207)"
           style="color:#000000;fill:url(#radialGradient3816);fill-rule:evenodd;stroke:#888a85;stroke-width:0.74719px;stroke-linecap:round;stroke-linejoin:round"
           id="path4320"
           inkscape:connector-curvature="0" />
        <path
           transform="matrix(1.2151,0,0,1.2151,-13.026,-9.8642)"
           d="m 39.775,19.009 a 8.6621,8.6621 0 1 1 -17.324,0 8.6621,8.6621 0 1 1 17.324,0 z"
           style="color:#000000;opacity:0.19620002;fill:none;stroke:#ffffff;stroke-width:0.82296002px;stroke-linecap:round;stroke-linejoin:round"
           id="path4322"
           inkscape:connector-curvature="0" />
      </g>
    </g>
    <g
       transform="matrix(0.08635612,0,0,0.08635612,158.66446,108.7543)"
       inkscape:label="Calque 1"
       id="layer1-7">
      <rect
         x="318.89999"
         y="308.26999"
         inkscape:export-ydpi="61.308788"
         inkscape:export-xdpi="61.308788"
         width="141.73"
         height="212.60001"
         transform="matrix(0.86603,-0.5,0,1,0,0)"
         rx="0"
         inkscape:export-filename="I:\Documents and Settings\Eric\Bureau\techicons.png"
         style="fill:#141235;stroke:#000000;stroke-width:5.37279987;stroke-linecap:round;stroke-linejoin:round"
         ry="0"
         id="rect2404" />
      <path
         inkscape:export-xdpi="61.308788"
         inkscape:export-filename="I:\Documents and Settings\Eric\Bureau\techicons.png"
         sodipodi:nodetypes="ccccc"
         inkscape:export-ydpi="61.308788"
         d="m 184.12,95.669 v 212.6 c 15.34,26.57 61.37,53.15 92.05,53.15 v -212.6 c -30.68,0 -76.71,-26.58 -92.05,-53.151 z"
         style="fill:#141235;fill-rule:evenodd;stroke:#000000;stroke-width:5;stroke-linecap:round;stroke-linejoin:round"
         id="path3178"
         inkscape:connector-curvature="0" />
      <path
         d="m 276.17,148.82 v 212.6 C 230.14,352.56 214.8,343.7 184.12,308.27 V 95.67 Z"
         style="fill:url(#linearGradient5737);fill-rule:evenodd"
         sodipodi:nodetypes="ccccc"
         id="path3300"
         inkscape:connector-curvature="0" />
      <path
         inkscape:export-xdpi="61.308788"
         inkscape:export-filename="I:\Documents and Settings\Eric\Bureau\techicons.png"
         sodipodi:nodetypes="cc"
         inkscape:export-ydpi="61.308788"
         d="m 264.04,183.06 c -27.47,-5.91 -54.23,-20.89 -72.82,-42.04"
         style="fill:none;stroke:#000000;stroke-width:5;stroke-linecap:round;stroke-linejoin:round"
         id="path3207"
         inkscape:connector-curvature="0" />
      <ellipse
         inkscape:export-xdpi="61.308788"
         transform="matrix(0,-1.3983,2.0715,0,-846.91,1012.3)"
         inkscape:export-filename="I:\Documents and Settings\Eric\Bureau\techicons.png"
         inkscape:export-ydpi="61.308788"
         style="fill:none;stroke:#000000;stroke-width:4.25390005;stroke-linecap:round;stroke-linejoin:round"
         id="path3215"
         cx="544.67542"
         cy="507.5787"
         rx="7.6714849"
         ry="4.4291339" />
      <ellipse
         inkscape:export-xdpi="61.308788"
         transform="matrix(0,-1.3523,2.0033,0,-812.59,1020.1)"
         inkscape:export-filename="I:\Documents and Settings\Eric\Bureau\techicons.png"
         inkscape:export-ydpi="61.308788"
         style="fill:none;stroke:#000000;stroke-width:4.25390005;stroke-linecap:round;stroke-linejoin:round"
         id="path3217"
         cx="544.67542"
         cy="507.5787"
         rx="7.6714849"
         ry="4.4291339" />
      <ellipse
         inkscape:export-xdpi="61.308788"
         transform="matrix(0,-2.4984,3.7011,0,-1674.1,1611.5)"
         inkscape:export-filename="I:\Documents and Settings\Eric\Bureau\techicons.png"
         inkscape:export-ydpi="61.308788"
         style="fill:url(#radialGradient4757)"
         id="path3233"
         cx="544.67542"
         cy="507.5787"
         rx="7.6714849"
         ry="4.4291339" />
      <ellipse
         inkscape:export-xdpi="61.308788"
         transform="matrix(0,-2.4162,3.5794,0,-1612.8,1599.4)"
         inkscape:export-filename="I:\Documents and Settings\Eric\Bureau\techicons.png"
         inkscape:export-ydpi="61.308788"
         style="fill:none"
         id="path3257"
         cx="544.67542"
         cy="507.5787"
         rx="7.6714849"
         ry="4.4291339" />
      <ellipse
         inkscape:export-xdpi="61.308788"
         transform="matrix(0,-2.4162,3.5794,0,-1612.8,1599.6)"
         inkscape:export-filename="I:\Documents and Settings\Eric\Bureau\techicons.png"
         inkscape:export-ydpi="61.308788"
         style="fill:url(#radialGradient3241)"
         id="path3269"
         cx="544.67542"
         cy="507.5787"
         rx="7.6714849"
         ry="4.4291339" />
      <path
         inkscape:export-xdpi="61.308788"
         inkscape:export-filename="I:\Documents and Settings\Eric\Bureau\techicons.png"
         sodipodi:nodetypes="cc"
         inkscape:export-ydpi="61.308788"
         d="m 265.34,208.35 c -27.46,-5.9 -54.23,-20.88 -72.82,-42.04"
         style="fill:none;stroke:#000000;stroke-width:5;stroke-linecap:round;stroke-linejoin:round"
         id="path3275"
         inkscape:connector-curvature="0" />
      <path
         d="m 279.24,147.05 v 155.9 c 0,-70.86 73.65,-127.56 119.68,-154.13 V 77.953 Z"
         style="fill:url(#linearGradient3288);fill-rule:evenodd"
         sodipodi:nodetypes="ccccc"
         id="path3279"
         inkscape:connector-curvature="0" />
      <path
         inkscape:export-xdpi="61.308788"
         inkscape:export-filename="I:\Documents and Settings\Eric\Bureau\techicons.png"
         sodipodi:nodetypes="ccccc"
         inkscape:export-ydpi="61.308788"
         d="m 276.17,148.82 c -30.68,0 -76.71,-26.58 -92.05,-53.151 l 122.74,-70.866 92.06,53.15 z"
         style="fill:#0e0d27;fill-rule:evenodd;stroke:#000000;stroke-width:5;stroke-linecap:round;stroke-linejoin:round"
         id="path3176"
         inkscape:connector-curvature="0" />
      <path
         d="M 184.12,95.669 273.1,147.05 395.85,76.181 306.86,24.803 Z"
         style="fill:url(#linearGradient3315);fill-rule:evenodd"
         sodipodi:nodetypes="ccccc"
         id="path3313"
         inkscape:connector-curvature="0" />
      <path
         inkscape:export-xdpi="61.308788"
         inkscape:export-filename="I:\Documents and Settings\Eric\Bureau\techicons.png"
         sodipodi:nodetypes="ccccccc"
         inkscape:export-ydpi="61.308788"
         d="M 306.86,24.803 184.12,95.669 v 212.6 c 15.34,26.57 61.37,53.15 92.05,53.15 l 122.75,-70.87 V 77.949 L 306.86,24.802 Z"
         style="fill:none;stroke:#000000;stroke-width:10;stroke-linecap:round;stroke-linejoin:round"
         id="path3193"
         inkscape:connector-curvature="0" />
    </g>
    <g
       id="g4787"
       inkscape:label="Calque 1"
       transform="matrix(0.08635612,0,0,0.08635612,82.500517,108.7543)">
      <rect
         id="rect4759"
         ry="0"
         style="fill:#141235;stroke:#000000;stroke-width:5.37279987;stroke-linecap:round;stroke-linejoin:round"
         inkscape:export-filename="I:\Documents and Settings\Eric\Bureau\techicons.png"
         rx="0"
         transform="matrix(0.86603,-0.5,0,1,0,0)"
         height="212.60001"
         width="141.73"
         inkscape:export-xdpi="61.308788"
         inkscape:export-ydpi="61.308788"
         y="308.26999"
         x="318.89999" />
      <path
         inkscape:connector-curvature="0"
         id="path4761"
         style="fill:#141235;fill-rule:evenodd;stroke:#000000;stroke-width:5;stroke-linecap:round;stroke-linejoin:round"
         d="m 184.12,95.669 v 212.6 c 15.34,26.57 61.37,53.15 92.05,53.15 v -212.6 c -30.68,0 -76.71,-26.58 -92.05,-53.151 z"
         inkscape:export-ydpi="61.308788"
         sodipodi:nodetypes="ccccc"
         inkscape:export-filename="I:\Documents and Settings\Eric\Bureau\techicons.png"
         inkscape:export-xdpi="61.308788" />
      <path
         inkscape:connector-curvature="0"
         id="path4763"
         sodipodi:nodetypes="ccccc"
         style="fill:url(#linearGradient4789);fill-rule:evenodd"
         d="m 276.17,148.82 v 212.6 C 230.14,352.56 214.8,343.7 184.12,308.27 V 95.67 Z" />
      <path
         inkscape:connector-curvature="0"
         id="path4765"
         style="fill:none;stroke:#000000;stroke-width:5;stroke-linecap:round;stroke-linejoin:round"
         d="m 264.04,183.06 c -27.47,-5.91 -54.23,-20.89 -72.82,-42.04"
         inkscape:export-ydpi="61.308788"
         sodipodi:nodetypes="cc"
         inkscape:export-filename="I:\Documents and Settings\Eric\Bureau\techicons.png"
         inkscape:export-xdpi="61.308788" />
      <ellipse
         ry="4.4291339"
         rx="7.6714849"
         cy="507.5787"
         cx="544.67542"
         id="ellipse4767"
         style="fill:none;stroke:#000000;stroke-width:4.25390005;stroke-linecap:round;stroke-linejoin:round"
         inkscape:export-ydpi="61.308788"
         inkscape:export-filename="I:\Documents and Settings\Eric\Bureau\techicons.png"
         transform="matrix(0,-1.3983,2.0715,0,-846.91,1012.3)"
         inkscape:export-xdpi="61.308788" />
      <ellipse
         ry="4.4291339"
         rx="7.6714849"
         cy="507.5787"
         cx="544.67542"
         id="ellipse4769"
         style="fill:none;stroke:#000000;stroke-width:4.25390005;stroke-linecap:round;stroke-linejoin:round"
         inkscape:export-ydpi="61.308788"
         inkscape:export-filename="I:\Documents and Settings\Eric\Bureau\techicons.png"
         transform="matrix(0,-1.3523,2.0033,0,-812.59,1020.1)"
         inkscape:export-xdpi="61.308788" />
      <ellipse
         ry="4.4291339"
         rx="7.6714849"
         cy="507.5787"
         cx="544.67542"
         id="ellipse4771"
         style="fill:url(#radialGradient4791)"
         inkscape:export-ydpi="61.308788"
         inkscape:export-filename="I:\Documents and Settings\Eric\Bureau\techicons.png"
         transform="matrix(0,-2.4984,3.7011,0,-1674.1,1611.5)"
         inkscape:export-xdpi="61.308788" />
      <ellipse
         ry="4.4291339"
         rx="7.6714849"
         cy="507.5787"
         cx="544.67542"
         id="ellipse4773"
         style="fill:none"
         inkscape:export-ydpi="61.308788"
         inkscape:export-filename="I:\Documents and Settings\Eric\Bureau\techicons.png"
         transform="matrix(0,-2.4162,3.5794,0,-1612.8,1599.4)"
         inkscape:export-xdpi="61.308788" />
      <ellipse
         ry="4.4291339"
         rx="7.6714849"
         cy="507.5787"
         cx="544.67542"
         id="ellipse4775"
         style="fill:url(#radialGradient4793)"
         inkscape:export-ydpi="61.308788"
         inkscape:export-filename="I:\Documents and Settings\Eric\Bureau\techicons.png"
         transform="matrix(0,-2.4162,3.5794,0,-1612.8,1599.6)"
         inkscape:export-xdpi="61.308788" />
      <path
         inkscape:connector-curvature="0"
         id="path4777"
         style="fill:none;stroke:#000000;stroke-width:5;stroke-linecap:round;stroke-linejoin:round"
         d="m 265.34,208.35 c -27.46,-5.9 -54.23,-20.88 -72.82,-42.04"
         inkscape:export-ydpi="61.308788"
         sodipodi:nodetypes="cc"
         inkscape:export-filename="I:\Documents and Settings\Eric\Bureau\techicons.png"
         inkscape:export-xdpi="61.308788" />
      <path
         inkscape:connector-curvature="0"
         id="path4779"
         sodipodi:nodetypes="ccccc"
         style="fill:url(#linearGradient4795);fill-rule:evenodd"
         d="m 279.24,147.05 v 155.9 c 0,-70.86 73.65,-127.56 119.68,-154.13 V 77.953 Z" />
      <path
         inkscape:connector-curvature="0"
         id="path4781"
         style="fill:#0e0d27;fill-rule:evenodd;stroke:#000000;stroke-width:5;stroke-linecap:round;stroke-linejoin:round"
         d="m 276.17,148.82 c -30.68,0 -76.71,-26.58 -92.05,-53.151 l 122.74,-70.866 92.06,53.15 z"
         inkscape:export-ydpi="61.308788"
         sodipodi:nodetypes="ccccc"
         inkscape:export-filename="I:\Documents and Settings\Eric\Bureau\techicons.png"
         inkscape:export-xdpi="61.308788" />
      <path
         inkscape:connector-curvature="0"
         id="path4783"
         sodipodi:nodetypes="ccccc"
         style="fill:url(#linearGradient4797);fill-rule:evenodd"
         d="M 184.12,95.669 273.1,147.05 395.85,76.181 306.86,24.803 Z" />
      <path
         inkscape:connector-curvature="0"
         id="path4785"
         style="fill:none;stroke:#000000;stroke-width:10;stroke-linecap:round;stroke-linejoin:round"
         d="M 306.86,24.803 184.12,95.669 v 212.6 c 15.34,26.57 61.37,53.15 92.05,53.15 l 122.75,-70.87 V 77.949 L 306.86,24.802 Z"
         inkscape:export-ydpi="61.308788"
         sodipodi:nodetypes="ccccccc"
         inkscape:export-filename="I:\Documents and Settings\Eric\Bureau\techicons.png"
         inkscape:export-xdpi="61.308788" />
    </g>
    <text
       xml:space="preserve"
       style="font-style:normal;font-weight:normal;font-size:10.58333302px;line-height:127.99999714%;font-family:sans-serif;letter-spacing:0px;word-spacing:0px;fill:#000000;fill-opacity:1;stroke:none;stroke-width:0.26458332px;stroke-linecap:butt;stroke-linejoin:miter;stroke-opacity:1"
       x="25.390606"
       y="146.52725"
       id="text4801"><tspan
         sodipodi:role="line"
         id="tspan4799"
         x="25.390606"
         y="146.52725"
         style="font-size:4.93888903px;stroke-width:0.26458332px">User</tspan></text>
    <text
       id="text4805"
       y="147.8636"
       x="92.828491"
       style="font-style:normal;font-weight:normal;font-size:10.58333302px;line-height:127.99999714%;font-family:sans-serif;letter-spacing:0px;word-spacing:0px;fill:#000000;fill-opacity:1;stroke:none;stroke-width:0.26458332px;stroke-linecap:butt;stroke-linejoin:miter;stroke-opacity:1"
       xml:space="preserve"><tspan
         style="font-size:4.93888903px;stroke-width:0.26458332px"
         y="147.8636"
         x="92.828491"
         id="tspan4803"
         sodipodi:role="line">Web Server</tspan></text>
    <text
       xml:space="preserve"
       style="font-style:normal;font-weight:normal;font-size:10.58333302px;line-height:127.99999714%;font-family:sans-serif;letter-spacing:0px;word-spacing:0px;fill:#000000;fill-opacity:1;stroke:none;stroke-width:0.26458332px;stroke-linecap:butt;stroke-linejoin:miter;stroke-opacity:1"
       x="164.9834"
       y="147.59633"
       id="text4809"><tspan
         sodipodi:role="line"
         id="tspan4807"
         x="164.9834"
         y="147.59633"
         style="font-size:4.93888903px;stroke-width:0.26458332px">Signing Server</tspan></text>
    <text
       xml:space="preserve"
       style="font-style:normal;font-weight:normal;font-size:10.58333302px;line-height:127.99999714%;font-family:sans-serif;letter-spacing:0px;word-spacing:0px;fill:#000000;fill-opacity:1;stroke:none;stroke-width:0.26458332px;stroke-linecap:butt;stroke-linejoin:miter;stroke-opacity:1"
       x="99.785713"
       y="93.270828"
       id="text4848"><tspan
         sodipodi:role="line"
         id="tspan4846"
         x="99.785713"
         y="93.270828"
         style="font-size:4.93888903px;stroke-width:0.26458332px">Internet</tspan></text>
    <path
       style="fill:none;fill-rule:evenodd;stroke:#000000;stroke-width:0.34400001;stroke-linecap:butt;stroke-linejoin:miter;stroke-miterlimit:4;stroke-dasharray:none;stroke-opacity:1;marker-end:url(#Arrow2Lend)"
       d="M 44.514991,127.98372 H 94.494047"
       id="path4850"
       inkscape:connector-curvature="0" />
    <path
       inkscape:connector-curvature="0"
       id="path5146"
       d="M 95.069113,132.21708 H 45.090057"
       style="fill:none;fill-rule:evenodd;stroke:#000000;stroke-width:0.34400001;stroke-linecap:butt;stroke-linejoin:miter;stroke-miterlimit:4;stroke-dasharray:none;stroke-opacity:1;marker-end:url(#marker5150)" />
    <text
       id="text5390"
       y="111.41369"
       x="56.503479"
       style="font-style:normal;font-weight:normal;font-size:10.58333302px;line-height:4.4979167px;font-family:sans-serif;text-align:center;letter-spacing:0px;word-spacing:0px;text-anchor:middle;fill:#000000;fill-opacity:1;stroke:none;stroke-width:0.26458332px;stroke-linecap:butt;stroke-linejoin:miter;stroke-opacity:1"
       xml:space="preserve"><tspan
         style="font-size:4.93888903px;line-height:4.4979167px;text-align:center;text-anchor:middle;stroke-width:0.26458332px"
         y="111.41369"
         x="56.503479"
         id="tspan5388"
         sodipodi:role="line">Download</tspan><tspan
         style="font-size:4.93888903px;line-height:4.4979167px;text-align:center;text-anchor:middle;stroke-width:0.26458332px"
         y="117.37784"
         x="56.503479"
         sodipodi:role="line"
         id="tspan5392">metadata</tspan><tspan
         style="font-size:4.93888903px;line-height:4.4979167px;text-align:center;text-anchor:middle;stroke-width:0.26458332px"
         y="123.34199"
         x="56.503479"
         sodipodi:role="line"
         id="tspan5394">and apps</tspan></text>
    <path
       style="fill:none;fill-rule:evenodd;stroke:#000000;stroke-width:0.31061104;stroke-linecap:butt;stroke-linejoin:miter;stroke-miterlimit:4;stroke-dasharray:none;stroke-opacity:1;marker-end:url(#marker5406)"
       d="M 169.74429,130.62957 H 121.44125"
       id="path5402"
       inkscape:connector-curvature="0"
       sodipodi:nodetypes="cc" />
    <text
       xml:space="preserve"
       style="font-style:normal;font-weight:normal;font-size:10.58333302px;line-height:4.4979167px;font-family:sans-serif;text-align:center;letter-spacing:0px;word-spacing:0px;text-anchor:middle;fill:#000000;fill-opacity:1;stroke:none;stroke-width:0.26458332px;stroke-linecap:butt;stroke-linejoin:miter;stroke-opacity:1"
       x="158.27127"
       y="114.81548"
       id="text5726"><tspan
         id="tspan5724"
         sodipodi:role="line"
         x="158.27127"
         y="114.81548"
         style="font-size:4.93888903px;line-height:4.4979167px;text-align:center;text-anchor:middle;stroke-width:0.26458332px">Upload</tspan><tspan
         sodipodi:role="line"
         x="158.27127"
         y="120.77963"
         style="font-size:4.93888903px;line-height:4.4979167px;text-align:center;text-anchor:middle;stroke-width:0.26458332px"
         id="tspan5733">signed</tspan><tspan
         sodipodi:role="line"
         x="158.27127"
         y="126.74378"
         style="font-size:4.93888903px;line-height:4.4979167px;text-align:center;text-anchor:middle;stroke-width:0.26458332px"
         id="tspan5735">metadata</tspan></text>
  </g>
</svg>
